{
  "images" : [
    {
      "idiom" : "universal",
      "filename" : "online-marketing-clipart-digital-media-703018-6462905.png",
      "scale" : "1x"
    },
    {
      "idiom" : "universal",
      "filename" : "online-marketing-clipart-digital-media-703018-6462905@2x.png",
      "scale" : "2x"
    },
    {
      "idiom" : "universal",
      "filename" : "online-marketing-clipart-digital-media-703018-6462905@3x.png",
      "scale" : "3x"
    }
  ],
  "info" : {
    "version" : 1,
    "author" : "xcode"
  }
}